%YAML 1.1
%TAG !u! tag:unity3d.com,2011:
--- !u!1 &880108536963935316
GameObject:
  m_ObjectHideFlags: 0
  m_CorrespondingSourceObject: {fileID: 0}
  m_PrefabInstance: {fileID: 0}
  m_PrefabAsset: {fileID: 0}
  serializedVersion: 6
  m_Component:
  - component: {fileID: 880108536963935314}
  - component: {fileID: 880108536963935317}
  m_Layer: 0
  m_Name: Arrow Shot
  m_TagString: Untagged
  m_Icon: {fileID: 0}
  m_NavMeshLayer: 0
  m_StaticEditorFlags: 0
  m_IsActive: 1
--- !u!4 &880108536963935314
Transform:
  m_ObjectHideFlags: 0
  m_CorrespondingSourceObject: {fileID: 0}
  m_PrefabInstance: {fileID: 0}
  m_PrefabAsset: {fileID: 0}
  m_GameObject: {fileID: 880108536963935316}
  m_LocalRotation: {x: 0, y: 0, z: 0, w: 1}
  m_LocalPosition: {x: -0.8627244, y: 2.4405065, z: -263.7552}
  m_LocalScale: {x: 1, y: 1, z: 1}
  m_Children: []
  m_Father: {fileID: 0}
  m_RootOrder: 0
  m_LocalEulerAnglesHint: {x: 0, y: 0, z: 0}
--- !u!114 &880108536963935317
MonoBehaviour:
  m_ObjectHideFlags: 0
  m_CorrespondingSourceObject: {fileID: 0}
  m_PrefabInstance: {fileID: 0}
  m_PrefabAsset: {fileID: 0}
  m_GameObject: {fileID: 880108536963935316}
  m_Enabled: 1
  m_EditorHideFlags: 0
  m_Script: {fileID: 11500000, guid: 21f37fb7475c10d428e0de0b1fef966b, type: 3}
  m_Name: 
  m_EditorClassIdentifier: 
  data: {fileID: 11400000, guid: 96ebef1bf25ca64448283dfb59d48fa4, type: 2}
  chosenTile: {fileID: 0}
  chosenUnit: {fileID: 0}
  castingPlayer: {fileID: 0}
  description: "\u0418\u0433\u0440\u043E\u043A \u0432\u044B\u043F\u0443\u0441\u043A\u0430\u0435\u0442
    \u0441\u0442\u0440\u0435\u043B\u0443, \u043A\u043E\u0442\u043E\u0440\u0430\u044F
    \u043B\u0435\u0442\u0438\u0442 \u043F\u043E \u043F\u0440\u044F\u043C\u043E\u0439
    \u0438 \u043D\u0430\u043D\u0435\u0441\u0435\u0442 {0} \u0443\u0440\u043E\u043D\u0430
    \u043F\u0435\u0440\u0432\u043E\u0439 \u0446\u0435\u043B\u0438 \u043D\u0430 \u043F\u0443\u0442\u0438."
  currentCooldown: 0
  arrowSpeed: 7
