%YAML 1.1
%TAG !u! tag:unity3d.com,2011:
--- !u!1 &7865834768077536584
GameObject:
  m_ObjectHideFlags: 0
  m_CorrespondingSourceObject: {fileID: 0}
  m_PrefabInstance: {fileID: 0}
  m_PrefabAsset: {fileID: 0}
  serializedVersion: 6
  m_Component:
  - component: {fileID: 2057340037426317085}
  - component: {fileID: 362545671377465162}
  m_Layer: 0
  m_Name: LightningBolt
  m_TagString: Untagged
  m_Icon: {fileID: 0}
  m_NavMeshLayer: 0
  m_StaticEditorFlags: 0
  m_IsActive: 1
--- !u!4 &2057340037426317085
Transform:
  m_ObjectHideFlags: 0
  m_CorrespondingSourceObject: {fileID: 0}
  m_PrefabInstance: {fileID: 0}
  m_PrefabAsset: {fileID: 0}
  m_GameObject: {fileID: 7865834768077536584}
  m_LocalRotation: {x: 0, y: 0, z: 0, w: 1}
  m_LocalPosition: {x: -0.9023587, y: 1.2779253, z: -0.46317005}
  m_LocalScale: {x: 1, y: 1, z: 1}
  m_Children: []
  m_Father: {fileID: 0}
  m_RootOrder: 0
  m_LocalEulerAnglesHint: {x: 0, y: 0, z: 0}
--- !u!114 &362545671377465162
MonoBehaviour:
  m_ObjectHideFlags: 0
  m_CorrespondingSourceObject: {fileID: 0}
  m_PrefabInstance: {fileID: 0}
  m_PrefabAsset: {fileID: 0}
  m_GameObject: {fileID: 7865834768077536584}
  m_Enabled: 1
  m_EditorHideFlags: 0
  m_Script: {fileID: 11500000, guid: 88520421cd7b2684cbf1a97d10745760, type: 3}
  m_Name: 
  m_EditorClassIdentifier: 
  data: {fileID: 11400000, guid: b365e947d051598409dffeb7623c1be1, type: 2}
  description: "\u0418\u0433\u0440\u043E\u043A \u0441\u043E\u0437\u0434\u0430\u0435\u0442
    \u0440\u0430\u0437\u0440\u044F\u0434 \u043C\u043E\u043B\u043D\u0438\u0438, \u043A\u043E\u0442\u043E\u0440\u044B\u0439
    \u043B\u0435\u0442\u0438\u0442 \u0437\u0438\u0433-\u0437\u0430\u0433\u043E\u043C
    \u0438 \u043D\u0430\u043D\u0435\u0441\u0435\u0442 {0} \u0443\u0440\u043E\u043D\u0430
    \u043F\u0435\u0440\u0432\u043E\u0439 \u0446\u0435\u043B\u0438 \u043D\u0430 \u043F\u0443\u0442\u0438."
  boltSpeed: 17
  pause: 0.1
