%YAML 1.1
%TAG !u! tag:unity3d.com,2011:
--- !u!114 &11400000
MonoBehaviour:
  m_ObjectHideFlags: 0
  m_CorrespondingSourceObject: {fileID: 0}
  m_PrefabInstance: {fileID: 0}
  m_PrefabAsset: {fileID: 0}
  m_GameObject: {fileID: 0}
  m_Enabled: 1
  m_EditorHideFlags: 0
  m_Script: {fileID: 11500000, guid: 0ee34e26a12e1fc408e8b2a6ccf57501, type: 3}
  m_Name: Meteorite
  m_EditorClassIdentifier: 
  cardName: "\u041C\u0435\u0442\u0435\u043E\u0440\u0438\u0442"
  artwork: {fileID: 21300000, guid: 828b0a71fca28294e9a61401ea017d0a, type: 3}
  damage: 2
  cooldown: 0
  cardAsset: {fileID: 0}
  isMain: 1
  DoesThisCardRefreshPlayerMovement: 0
  DoesThisCardSpawnUnit: 0
